3 Introduction to Data Cleaning and Manipulation | R For Entomologists
…
The group_by() function can be used to tell R what variable it should use to group your data with and this can be paired with summarise() to produce summaries for each group. Let’s calculate the same summary table as before but this time produce a separate row for each county in the data.

county_summary <- buprestid_data %>% 
   group_by(county) %>% 
   summarise(mean_count = mean(n),
             median_count = median(n),
             num_observations = n(),
             stdev_count = sd(n),
             coef_var = sd(n) / mean(n))

## `summarise()` ungrouping output (override with `.groups` argument)

county_summary

## # A tibble: 93 x 6
##    county       mean_count median_count num_observations stdev_count coef_var
##    <chr>             <dbl>        <int>            <int>       <dbl>    <dbl>
##  1 aitkin          0                  0              129      0        NaN   
##  2 anoka           0.721              0              129      3.82       5.30
##  3 anoka/isanti    0.0698             0              129      0.562      8.05
##  4 aonka/isanti    0.116              0              129      1.32      11.4 
##  5 becker          0                  0              129      0        NaN   
##  6 beltrami        0.00775            0              129      0.0880    11.4 
##  7 benton          0                  0              129      0        NaN   
##  8 big stone       0.0155             0              129      0.176     11.4 
##  9 blue earth      0                  0              129      0        NaN   
## 10 brown           0                  0              129      0        NaN   
## # ... with 83 more rows
…
